{
  "semanticCommits": "enabled",
  "extends": ["config:recommended", ":rebaseStalePrs"],
  "dependencyDashboard": false,
  "commitMessageTopic": "{{depName}}",
  "commitMessageExtra": "to {{newVersion}}",
  "commitMessageSuffix": "",
  "rebaseWhen": "conflicted",
  "prConcurrentLimit": 100,
  "pinDigests": true,
  "automerge": true,
  "gitAuthor": "szymonrichert.pl bot <bot@szymonrichert.pl>",
  "customManagers": [
    {
      "customType": "regex",
      "fileMatch": ["(^|/)Dockerfile$"],
      "matchStrings": [
        "#\\s?renovate: image=(?<depName>.*?)\\s?ARG\\s[\\w+\\_]*\\s?=\\s?\\\"?(?<currentValue>[\\w+\\.\\-]*)"
      ],
      "datasourceTemplate": "docker"
    },
    {
      "customType": "regex",
      "fileMatch": ["(^|/)Dockerfile$"],
      "matchStrings": [
        "#\\s?renovate: repository=(?<depName>.*?)\\s?ARG\\s[\\w+\\_]*\\s?=\\s?\\\"?(?<currentValue>[\\w+\\.\\-]*)"
      ],
      "datasourceTemplate": "github-tags"
    }
  ],
  "packageRules": [
    {
      "matchManagers": ["regex"],
      "postUpgradeTasks": {
        "commands": [
          "./.bump_version.sh '{{{packageFile}}}' '{{{depName}}}' '{{{depType}}}' '{{{currentVersion}}}' '{{{newVersion}}}'"
        ],
        "executionMode": "branch"
      }
    },
    {
      "description": "MinorAutoUpgrade",
      "matchUpdateTypes": ["pin", "digest", "patch", "minor"],
      "minimumReleaseAge": null,
      "labels": ["automerge"],
      "suppressNotifications": ["prIgnoreNotification", "prEditedNotification"],
      "automerge": true
    },
    {
      "description": "MajorUpgrade",
      "matchUpdateTypes": ["major"],
      "minimumReleaseAge": "7 days",
      "automerge": true
    },
    {
      "matchPackagePatterns": [
        "*"
      ],
      "matchUpdateTypes": [
        "minor",
        "patch"
      ],
      "groupName": "all non-major dependencies",
      "groupSlug": "all-minor-patch"
    }
  ]
}
